ceg3155lab3/simulation/qsim/lab3.msim.vcd
$comment
	File created using the following command:
		vcd file lab3.msim.vcd -direction
$end
$date
	Mon Nov 15 11:29:03 2021
$end
$version
	ModelSim Version 10.1d
$end
$timescale
	1ps
$end
$scope module lab3_vlg_vec_tst $end
$var reg 1 ! GClock $end
$var reg 1 " GReset_raw $end
$var reg 4 # msc [3:0] $end
$var reg 4 $ ssc [3:0] $end
$var reg 1 % sscs_raw $end
$var wire 1 & c_reset $end
$var wire 1 ' ccc $end
$var wire 1 ( main_t $end
$var wire 1 ) mstl [2] $end
$var wire 1 * mstl [1] $end
$var wire 1 + mstl [0] $end
$var wire 1 , side_t $end
$var wire 1 - sstl [2] $end
$var wire 1 . sstl [1] $end
$var wire 1 / sstl [0] $end
$var wire 1 0 states [3] $end
$var wire 1 1 states [2] $end
$var wire 1 2 states [1] $end
$var wire 1 3 states [0] $end
$var wire 1 4 states2 [3] $end
$var wire 1 5 states2 [2] $end
$var wire 1 6 states2 [1] $end
$var wire 1 7 states2 [0] $end
$var wire 1 8 stt [3] $end
$var wire 1 9 stt [2] $end
$var wire 1 : stt [1] $end
$var wire 1 ; stt [0] $end
$var wire 1 < stt1 [3] $end
$var wire 1 = stt1 [2] $end
$var wire 1 > stt1 [1] $end
$var wire 1 ? stt1 [0] $end
$var wire 1 @ stt2 [3] $end
$var wire 1 A stt2 [2] $end
$var wire 1 B stt2 [1] $end
$var wire 1 C stt2 [0] $end
$var wire 1 D timer_reset $end
$var wire 1 E sampler $end
$scope module i1 $end
$var wire 1 F gnd $end
$var wire 1 G vcc $end
$var wire 1 H unknown $end
$var tri1 1 I devclrn $end
$var tri1 1 J devpor $end
$var tri1 1 K devoe $end
$var wire 1 L msc[0]~input_o $end
$var wire 1 M ssc[1]~input_o $end
$var wire 1 N GClock~input_o $end
$var wire 1 O GReset_raw~input_o $end
$var wire 1 P GClock~inputclkctrl_outclk $end
$var wire 1 Q mstl[0]~output_o $end
$var wire 1 R mstl[1]~output_o $end
$var wire 1 S mstl[2]~output_o $end
$var wire 1 T sstl[0]~output_o $end
$var wire 1 U sstl[1]~output_o $end
$var wire 1 V sstl[2]~output_o $end
$var wire 1 W main_t~output_o $end
$var wire 1 X side_t~output_o $end
$var wire 1 Y ccc~output_o $end
$var wire 1 Z timer_reset~output_o $end
$var wire 1 [ c_reset~output_o $end
$var wire 1 \ stt2[0]~output_o $end
$var wire 1 ] stt2[1]~output_o $end
$var wire 1 ^ stt2[2]~output_o $end
$var wire 1 _ stt2[3]~output_o $end
$var wire 1 ` stt1[0]~output_o $end
$var wire 1 a stt1[1]~output_o $end
$var wire 1 b stt1[2]~output_o $end
$var wire 1 c stt1[3]~output_o $end
$var wire 1 d stt[0]~output_o $end
$var wire 1 e stt[1]~output_o $end
$var wire 1 f stt[2]~output_o $end
$var wire 1 g stt[3]~output_o $end
$var wire 1 h states2[0]~output_o $end
$var wire 1 i states2[1]~output_o $end
$var wire 1 j states2[2]~output_o $end
$var wire 1 k states2[3]~output_o $end
$var wire 1 l states[0]~output_o $end
$var wire 1 m states[1]~output_o $end
$var wire 1 n states[2]~output_o $end
$var wire 1 o states[3]~output_o $end
$var wire 1 p state_sig1|int_q~0_combout $end
$var wire 1 q state_sig1|int_q~q $end
$var wire 1 r st1~0_combout $end
$var wire 1 s st0~0_combout $end
$var wire 1 t yellow_timer|lsb|int_q~0_combout $end
$var wire 1 u reset_c~0_combout $end
$var wire 1 v reset_c~0clkctrl_outclk $end
$var wire 1 w yellow_timer|lsb|int_q~q $end
$var wire 1 x yellow_timer|msb|int_q~0_combout $end
$var wire 1 y yellow_timer|msb|int_q~q $end
$var wire 1 z yellow_timer|b3|int_q~0_combout $end
$var wire 1 { yellow_timer|b3|int_q~q $end
$var wire 1 | yellow_timer|o~0_combout $end
$var wire 1 } Y1~2_combout $end
$var wire 1 ~ state_sig3|int_q~0_combout $end
$var wire 1 !! state_sig3|int_q~q $end
$var wire 1 "! st2~0_combout $end
$var wire 1 #! sscs_raw~input_o $end
$var wire 1 $! car_sensor_debouncer|int_nextState[0]~0_combout $end
$var wire 1 %! car_sensor_debouncer|int_nextState[1]~1_combout $end
$var wire 1 &! main_timer|b2|int_q~0_combout $end
$var wire 1 '! reset_timer~combout $end
$var wire 1 (! reset_timer~clkctrl_outclk $end
$var wire 1 )! main_timer|b2|int_q~q $end
$var wire 1 *! msc[1]~input_o $end
$var wire 1 +! main_timer|msb|int_q~0_combout $end
$var wire 1 ,! main_timer|msb|int_q~q $end
$var wire 1 -! main_timer|o~1_combout $end
$var wire 1 .! msc[2]~input_o $end
$var wire 1 /! msc[3]~input_o $end
$var wire 1 0! main_timer|b3|int_q~0_combout $end
$var wire 1 1! main_timer|b3|int_q~q $end
$var wire 1 2! main_timer|o~0_combout $end
$var wire 1 3! Y3~2_combout $end
$var wire 1 4! Y2~1_combout $end
$var wire 1 5! state_sig2|int_q~0_combout $end
$var wire 1 6! state_sig2|int_q~q $end
$var wire 1 7! st3~0_combout $end
$var wire 1 8! ssc[2]~input_o $end
$var wire 1 9! ssc[3]~input_o $end
$var wire 1 :! side_timer|b3|int_q~0_combout $end
$var wire 1 ;! side_timer|b3|int_q~q $end
$var wire 1 <! side_timer|o~0_combout $end
$var wire 1 =! Y3~3_combout $end
$var wire 1 >! Y3~4_combout $end
$var wire 1 ?! stabl~0_combout $end
$var wire 1 @! Y0~0_combout $end
$var wire 1 A! Y0~1_combout $end
$var wire 1 B! state_sig4|int_q~0_combout $end
$var wire 1 C! state_sig4|int_q~q $end
$var wire 1 D! mstl~0_combout $end
$var wire 1 E! sstl~0_combout $end
$var wire 1 F! main_timer|o~combout $end
$var wire 1 G! ssc[0]~input_o $end
$var wire 1 H! side_timer|b2|int_q~0_combout $end
$var wire 1 I! side_timer|b2|int_q~q $end
$var wire 1 J! side_timer|msb|int_q~0_combout $end
$var wire 1 K! side_timer|msb|int_q~q $end
$var wire 1 L! side_timer|o~1_combout $end
$var wire 1 M! side_timer|o~combout $end
$var wire 1 N! main_timer|lsb|int_q~0_combout $end
$var wire 1 O! main_timer|lsb|int_q~q $end
$var wire 1 P! side_timer|lsb|int_q~0_combout $end
$var wire 1 Q! side_timer|lsb|int_q~q $end
$var wire 1 R! yellow_timer|b2|int_q~0_combout $end
$var wire 1 S! yellow_timer|b2|int_q~q $end
$var wire 1 T! reset_debouncer|int_nextState[1]~0_combout $end
$var wire 1 U! reset_debouncer|int_nextState[0]~1_combout $end
$var wire 1 V! Y1~combout $end
$var wire 1 W! Y2~0_combout $end
$var wire 1 X! reset_debouncer|Equal1~0_combout $end
$var wire 1 Y! Y2~combout $end
$var wire 1 Z! Y3~combout $end
$var wire 1 [! reset_debouncer|int_currentState [1] $end
$var wire 1 \! reset_debouncer|int_currentState [0] $end
$var wire 1 ]! car_sensor_debouncer|int_currentState [1] $end
$var wire 1 ^! car_sensor_debouncer|int_currentState [0] $end
$upscope $end
$upscope $end
$enddefinitions $end
#0
$dumpvars
0!
1"
b110 #
b1011 $
0%
0&
0'
0(
0+
0*
0)
0,
0/
0.
0-
03
02
01
00
07
06
05
04
0;
0:
09
08
0?
0>
0=
0<
0C
0B
0A
0@
0D
xE
0F
1G
xH
1I
1J
1K
0L
1M
0N
1O
0P
0Q
0R
0S
0T
0U
0V
0W
0X
0Y
0Z
0[
0\
0]
0^
0_
0`
0a
0b
0c
0d
0e
0f
0g
0h
0i
0j
0k
0l
0m
0n
0o
0p
0q
0r
0s
1t
1u
1v
0w
1x
0y
1z
0{
0|
0}
0~
0!!
0"!
0#!
0$!
0%!
1&!
1'!
1(!
0)!
1*!
1+!
0,!
1-!
1.!
0/!
10!
01!
12!
03!
04!
05!
06!
07!
08!
19!
1:!
0;!
1<!
0=!
0>!
0?!
0@!
1A!
0B!
0C!
0D!
0E!
1F!
1G!
1H!
0I!
1J!
0K!
1L!
1M!
1N!
0O!
1P!
0Q!
1R!
0S!
0T!
1U!
0V!
0W!
0X!
0Y!
0Z!
0\!
0[!
0^!
0]!
$end
#20000
1!
1N
1P
0E
1\!
0U!
1T!
#40000
0!
0N
0P
1E
#60000
1!
1N
1P
0E
0\!
1[!
1X!
0A!
1?!
1l
13
1B!
#80000
0!
0N
0P
1E
#100000
0"
1!
0O
1N
1P
0E
0T!
1C!
0'!
1h
0(!
17
1E!
1s
1@!
1Z
1T
1S
1D
1/
1)
#120000
0!
0N
0P
1E
#140000
1!
1N
1P
0E
0[!
1K!
1,!
0X!
0J!
0+!
1`
1\
1?
1C
1I!
1)!
0L!
0H!
0&!
1a
1]
1>
1B
1;!
11!
0:!
02!
00!
1b
1^
1=
1A
1Q!
1O!
0P!
0N!
12!
1c
1_
1<
1@
#160000
0!
0N
0P
1E
#180000
1!
1N
1P
0E
0K!
0,!
1L!
1J!
0-!
1+!
0`
0\
0?
0C
#200000
0!
0N
0P
1E
#220000
1!
1N
1P
0E
1K!
1,!
0L!
0J!
1-!
0+!
1`
1\
1?
1C
0I!
0)!
1L!
1H!
1&!
0a
0]
0>
0B
#240000
0!
0N
0P
1E
#260000
1!
1N
1P
0E
0K!
0,!
1J!
1+!
0`
0\
0?
0C
#280000
0!
0N
0P
1E
#300000
1!
1N
1P
0E
1K!
1,!
0J!
0+!
1`
1\
1?
1C
1I!
1)!
0L!
0H!
0&!
1a
1]
1>
1B
0;!
01!
0<!
1:!
10!
0b
0^
0=
0A
0M!
1X
1,
#320000
0!
0N
0P
1E
#340000
1!
1N
1P
0E
0K!
0,!
1L!
1J!
0-!
1+!
0`
0\
0?
0C
1M!
0X
0,
#360000
0!
0N
0P
1E
#380000
1!
1N
1P
0E
1K!
1,!
0L!
0J!
1-!
0+!
1`
1\
1?
1C
0M!
1X
1,
0I!
0)!
1L!
1H!
1&!
0a
0]
0>
0B
1M!
0X
0,
#400000
0!
0N
0P
1E
#420000
1!
1N
1P
0E
0K!
0,!
1J!
1+!
0`
0\
0?
0C
#440000
0!
0N
0P
1E
#460000
1!
1N
1P
0E
1K!
1,!
0J!
0+!
1`
1\
1?
1C
1I!
1)!
0L!
0H!
0&!
1a
1]
1>
1B
0M!
1X
1,
1;!
11!
1<!
0:!
00!
1b
1^
1=
1A
1M!
0X
0,
0Q!
0O!
1P!
1N!
02!
0c
0_
0<
0@
#480000
0!
0N
0P
1E
#500000
1!
1N
1P
0E
0K!
0,!
1L!
1J!
0-!
1+!
0`
0\
0?
0C
0F!
1W
1(
#520000
0!
0N
0P
1E
#540000
1!
1N
1P
0E
1K!
1,!
0L!
0J!
1-!
0+!
1`
1\
1?
1C
1F!
0W
0(
0I!
0)!
1L!
1H!
1&!
0a
0]
0>
0B
#560000
0!
0N
0P
1E
#580000
1!
1N
1P
0E
0K!
0,!
1J!
1+!
0`
0\
0?
0C
#600000
0!
0N
0P
1E
#620000
1!
1N
1P
0E
1K!
1,!
0J!
0+!
1`
1\
1?
1C
1I!
1)!
0L!
0H!
0&!
1a
1]
1>
1B
0;!
01!
1:!
12!
10!
0b
0^
0=
0A
#640000
0!
0N
0P
1E
#660000
1!
1N
1P
0E
0K!
0,!
1L!
1J!
0-!
1+!
0`
0\
0?
0C
#680000
0!
0N
0P
1E
#700000
1!
1N
1P
0E
1K!
1,!
0L!
0J!
1-!
0+!
1`
1\
1?
1C
0I!
0)!
1L!
1H!
1&!
0a
0]
0>
0B
#720000
0!
0N
0P
1E
#740000
1!
1N
1P
0E
0K!
0,!
1J!
1+!
0`
0\
0?
0C
#760000
0!
0N
0P
1E
#780000
1!
1N
1P
0E
1K!
1,!
0J!
0+!
1`
1\
1?
1C
1I!
1)!
0L!
0H!
0&!
1a
1]
1>
1B
1;!
11!
0:!
02!
00!
1b
1^
1=
1A
1Q!
1O!
0P!
0N!
12!
1c
1_
1<
1@
#800000
0!
0N
0P
1E
#820000
1!
1N
1P
0E
0K!
0,!
1L!
1J!
0-!
1+!
0`
0\
0?
0C
#840000
0!
0N
0P
1E
#860000
1!
1N
1P
0E
1K!
1,!
0L!
0J!
1-!
0+!
1`
1\
1?
1C
0I!
0)!
1L!
1H!
1&!
0a
0]
0>
0B
#880000
0!
0N
0P
1E
#900000
1!
1N
1P
0E
0K!
0,!
1J!
1+!
0`
0\
0?
0C
#920000
0!
0N
0P
1E
#940000
1!
1N
1P
0E
1K!
1,!
0J!
0+!
1`
1\
1?
1C
1I!
1)!
0L!
0H!
0&!
1a
1]
1>
1B
0;!
01!
0<!
1:!
10!
0b
0^
0=
0A
0M!
1X
1,
#960000
0!
0N
0P
1E
#980000
1!
1N
1P
0E
0K!
0,!
1L!
1J!
0-!
1+!
0`
0\
0?
0C
1M!
0X
0,
#1000000
0!
0N
0P
1E
#1020000
1!
1N
1P
0E
1K!
1,!
0L!
0J!
1-!
0+!
1`
1\
1?
1C
0M!
1X
1,
0I!
0)!
1L!
1H!
1&!
0a
0]
0>
0B
1M!
0X
0,
#1040000
0!
0N
0P
1E
#1060000
1!
1N
1P
0E
0K!
0,!
1J!
1+!
0`
0\
0?
0C
#1080000
0!
0N
0P
1E
#1100000
1!
1N
1P
0E
1K!
1,!
0J!
0+!
1`
1\
1?
1C
1I!
1)!
0L!
0H!
0&!
1a
1]
1>
1B
0M!
1X
1,
1;!
11!
1<!
0:!
00!
1b
1^
1=
1A
1M!
0X
0,
0Q!
0O!
1P!
1N!
02!
0c
0_
0<
0@
#1120000
0!
0N
0P
1E
#1140000
1!
1N
1P
0E
0K!
0,!
1L!
1J!
0-!
1+!
0`
0\
0?
0C
0F!
1W
1(
#1160000
0!
0N
0P
1E
#1180000
1!
1N
1P
0E
1K!
1,!
0L!
0J!
1-!
0+!
1`
1\
1?
1C
1F!
0W
0(
0I!
0)!
1L!
1H!
1&!
0a
0]
0>
0B
#1200000
0!
0N
0P
1E
#1220000
1!
1N
1P
0E
0K!
0,!
1J!
1+!
0`
0\
0?
0C
#1240000
0!
0N
0P
1E
#1260000
1!
1N
1P
0E
1K!
1,!
0J!
0+!
1`
1\
1?
1C
1I!
1)!
0L!
0H!
0&!
1a
1]
1>
1B
0;!
01!
1:!
12!
10!
0b
0^
0=
0A
#1280000
0!
0N
0P
1E
#1300000
1!
1N
1P
0E
0K!
0,!
1L!
1J!
0-!
1+!
0`
0\
0?
0C
#1320000
0!
0N
0P
1E
#1340000
1!
1N
1P
0E
1K!
1,!
0L!
0J!
1-!
0+!
1`
1\
1?
1C
0I!
0)!
1L!
1H!
1&!
0a
0]
0>
0B
#1360000
0!
0N
0P
1E
#1380000
1!
1N
1P
0E
0K!
0,!
1J!
1+!
0`
0\
0?
0C
#1400000
0!
0N
0P
1E
#1420000
1!
1N
1P
0E
1K!
1,!
0J!
0+!
1`
1\
1?
1C
1I!
1)!
0L!
0H!
0&!
1a
1]
1>
1B
1;!
11!
0:!
02!
00!
1b
1^
1=
1A
1Q!
1O!
0P!
0N!
12!
1c
1_
1<
1@
#1440000
0!
0N
0P
1E
#1460000
1!
1N
1P
0E
0K!
0,!
1L!
1J!
0-!
1+!
0`
0\
0?
0C
#1480000
0!
0N
0P
1E
#1500000
1%
1!
1#!
1N
1P
0E
1$!
1K!
1,!
0L!
0J!
1-!
0+!
1`
1\
1?
1C
0I!
0)!
1L!
1H!
1&!
0a
0]
0>
0B
#1520000
0!
0N
0P
1E
#1540000
1!
1N
1P
0E
1^!
0K!
0,!
1%!
0$!
1J!
1+!
0`
0\
0?
0C
#1560000
0!
0N
0P
1E
#1580000
1!
1N
1P
0E
1]!
0^!
1K!
1,!
0@!
0J!
0+!
1`
1\
1?
1C
1A!
0B!
0?!
0l
03
1B!
1I!
1)!
0L!
0H!
0&!
1a
1]
1>
1B
0;!
01!
0<!
1:!
10!
0b
0^
0=
0A
0M!
1X
1,
#1600000
0!
0N
0P
1E
#1620000
1!
1N
1P
0E
0K!
0,!
1L!
1J!
0-!
1+!
0`
0\
0?
0C
1M!
0X
0,
#1640000
0!
0N
0P
1E
#1660000
1!
1N
1P
0E
1K!
1,!
0L!
0J!
1-!
0+!
1`
1\
1?
1C
0M!
1X
1,
0I!
0)!
1L!
1H!
1&!
0a
0]
0>
0B
1M!
0X
0,
#1680000
0!
0N
0P
1E
#1700000
1!
1N
1P
0E
0K!
0,!
1J!
1+!
0`
0\
0?
0C
#1720000
0!
0N
0P
1E
#1740000
1!
1N
1P
0E
1K!
1,!
0J!
0+!
1`
1\
1?
1C
1I!
1)!
0L!
0H!
0&!
1a
1]
1>
1B
0M!
1X
1,
1;!
11!
1<!
0:!
00!
1b
1^
1=
1A
1M!
0X
0,
0Q!
0O!
1P!
1N!
02!
0c
0_
0<
0@
#1760000
0!
0N
0P
1E
#1780000
1!
1N
1P
0E
0K!
0,!
1L!
1J!
0-!
1+!
0`
0\
0?
0C
0F!
13!
1}
1W
1(
1?!
1V!
0B!
1~
1m
12
#1800000
0!
0N
0P
1E
#1820000
1!
1N
1P
0E
1K!
0C!
1,!
1!!
0L!
0J!
1'!
0u
1-!
0+!
1`
0h
1\
1i
1(!
0v
1?
07
1C
16
0s
1r
1F!
03!
0Z
1[
0S
1R
0D
1&
0)
1*
0W
0(
0,!
01!
0;!
0K!
0I!
0)!
1+!
12!
10!
1:!
1L!
1J!
1H!
1&!
0\
0^
0b
0`
0a
0]
0C
0A
0=
0?
0>
0B
#1840000
0!
0N
0P
1E
#1860000
1!
1N
1P
0E
1y
0x
1d
1;
1S!
0R!
1e
1:
1{
0z
1f
19
1w
0t
1g
18
#1880000
0!
0N
0P
1E
#1900000
1!
1N
1P
0E
0y
1x
0d
0;
#1920000
0!
0N
0P
1E
#1940000
1!
1N
1P
0E
1y
0x
1d
1;
0S!
1R!
0e
0:
#1960000
0!
0N
0P
1E
#1980000
1!
1N
1P
0E
0y
1x
0d
0;
#2000000
0!
0N
0P
1E
#2020000
1!
1N
1P
0E
1y
0x
1d
1;
1S!
0R!
1e
1:
0{
1z
0f
09
#2040000
0!
0N
0P
1E
#2060000
1!
1N
1P
0E
0y
1x
0d
0;
#2080000
0!
0N
0P
1E
#2100000
1!
1N
1P
0E
1y
0x
1d
1;
0S!
1R!
0e
0:
1|
1W!
0}
1Y
1'
14!
0?!
0~
1Y!
0V!
1?!
1~
1n
0m
11
02
15!
0~
#2120000
0!
0N
0P
1E
#2140000
1!
1N
1P
0E
16!
0!!
0y
0'!
1u
1x
1j
0i
0d
0(!
1v
15
06
0;
0E!
1D!
1"!
0r
0|
1Z
0[
0T
1Q
1V
0R
0Y
1D
0&
0/
1+
1-
0*
0'
0w
1t
0g
08
#2160000
0!
0N
0P
1E
#2180000
1!
1N
1P
0E
1K!
1,!
0J!
0+!
1`
1\
1?
1C
1I!
1)!
0L!
0H!
0&!
1a
1]
1>
1B
1;!
11!
0:!
02!
00!
1b
1^
1=
1A
1Q!
1O!
0P!
0N!
12!
1c
1_
1<
1@
#2200000
0!
0N
0P
1E
#2220000
1!
1N
1P
0E
0K!
0,!
1L!
1J!
0-!
1+!
0`
0\
0?
0C
#2240000
0!
0N
0P
1E
#2260000
1!
1N
1P
0E
1K!
1,!
0L!
0J!
1-!
0+!
1`
1\
1?
1C
0I!
0)!
1L!
1H!
1&!
0a
0]
0>
0B
#2280000
0!
0N
0P
1E
#2300000
1!
1N
1P
0E
0K!
0,!
1J!
1+!
0`
0\
0?
0C
#2320000
0!
0N
0P
1E
#2340000
1!
1N
1P
0E
1K!
1,!
0J!
0+!
1`
1\
1?
1C
1I!
1)!
0L!
0H!
0&!
1a
1]
1>
1B
0;!
01!
0<!
1:!
10!
0b
0^
0=
0A
0M!
1=!
0W!
1>!
1X
1,
04!
1p
0Y!
1Z!
05!
0n
1o
01
10
#2360000
0!
0N
0P
1E
#2380000
1!
1N
1P
0E
0K!
06!
0,!
1q
1L!
1J!
1'!
0u
0-!
1+!
0`
0j
0\
1k
1(!
0v
0?
05
0C
14
17!
0"!
1M!
0=!
0Z
1[
1U
0V
0D
1&
1.
0-
0X
0,
0)!
0I!
0O!
0Q!
1-!
1&!
1H!
1N!
1P!
1<!
0]
0a
0_
0c
0B
0>
0@
0<
#2400000
0!
0N
0P
1E
#2420000
1!
1N
1P
0E
1y
0x
1d
1;
1S!
0R!
1e
1:
1{
0z
1f
19
1w
0t
1g
18
#2440000
0!
0N
0P
1E
#2460000
1!
1N
1P
0E
0y
1x
0d
0;
#2480000
0!
0N
0P
1E
#2500000
1!
1N
1P
0E
1y
0x
1d
1;
0S!
1R!
0e
0:
#2520000
0!
0N
0P
1E
#2540000
1!
1N
1P
0E
0y
1x
0d
0;
#2560000
0!
0N
0P
1E
#2580000
1!
1N
1P
0E
1y
0x
1d
1;
1S!
0R!
1e
1:
0{
1z
0f
09
#2600000
0!
0N
0P
1E
#2620000
1!
1N
1P
0E
0y
1x
0d
0;
#2640000
0!
0N
0P
1E
#2660000
1!
1N
1P
0E
1y
0x
1d
1;
0S!
1R!
0e
0:
1|
0A!
0>!
1Y
1'
1B!
0p
1l
13
0Z!
0o
00
#2680000
0!
0N
0P
1E
#2700000
1!
1N
1P
0E
1C!
0y
0q
0'!
1u
1x
1h
0d
0k
0(!
1v
17
0;
04
1E!
0D!
07!
1s
0|
1A!
1Z
0[
1T
0Q
0U
1S
0Y
1D
0&
1/
0+
0.
1)
0'
0B!
0?!
0l
03
1B!
0w
1t
0g
08
#2720000
0!
0N
0P
1E
#2740000
1!
1N
1P
0E
1K!
1,!
0J!
0+!
1`
1\
1?
1C
1I!
1)!
0L!
0H!
0&!
1a
1]
1>
1B
1;!
11!
0:!
02!
00!
1b
1^
1=
1A
1Q!
1O!
0P!
0N!
12!
1c
1_
1<
1@
#2760000
0!
0N
0P
1E
#2780000
1!
1N
1P
0E
0K!
0,!
1L!
1J!
0-!
1+!
0`
0\
0?
0C
#2800000
0!
0N
0P
1E
#2820000
1!
1N
1P
0E
1K!
1,!
0L!
0J!
1-!
0+!
1`
1\
1?
1C
0I!
0)!
1L!
1H!
1&!
0a
0]
0>
0B
#2840000
0!
0N
0P
1E
#2860000
1!
1N
1P
0E
0K!
0,!
1J!
1+!
0`
0\
0?
0C
#2880000
0!
0N
0P
1E
#2900000
1!
1N
1P
0E
1K!
1,!
0J!
0+!
1`
1\
1?
1C
1I!
1)!
0L!
0H!
0&!
1a
1]
1>
1B
0;!
01!
0<!
1:!
10!
0b
0^
0=
0A
0M!
1X
1,
#2920000
0!
0N
0P
1E
#2940000
1!
1N
1P
0E
0K!
0,!
1L!
1J!
0-!
1+!
0`
0\
0?
0C
1M!
0X
0,
#2960000
0!
0N
0P
1E
#2980000
1!
1N
1P
0E
1K!
1,!
0L!
0J!
1-!
0+!
1`
1\
1?
1C
0M!
1X
1,
0I!
0)!
1L!
1H!
1&!
0a
0]
0>
0B
1M!
0X
0,
#3000000
0!
0N
0P
1E
#3020000
1!
1N
1P
0E
0K!
0,!
1J!
1+!
0`
0\
0?
0C
#3040000
0!
0N
0P
1E
#3060000
1!
1N
1P
0E
1K!
1,!
0J!
0+!
1`
1\
1?
1C
1I!
1)!
0L!
0H!
0&!
1a
1]
1>
1B
0M!
1X
1,
1;!
11!
1<!
0:!
00!
1b
1^
1=
1A
1M!
0X
0,
0Q!
0O!
1P!
1N!
02!
0c
0_
0<
0@
#3080000
0!
0N
0P
1E
#3100000
1!
1N
1P
0E
0K!
0,!
1L!
1J!
0-!
1+!
0`
0\
0?
0C
0F!
13!
1}
1W
1(
1?!
1V!
0B!
1~
1m
12
#3120000
0!
0N
0P
1E
#3140000
1!
1N
1P
0E
1K!
0C!
1,!
1!!
0L!
0J!
1'!
0u
1-!
0+!
1`
0h
1\
1i
1(!
0v
1?
07
1C
16
0s
1r
1F!
03!
0Z
1[
0S
1R
0D
1&
0)
1*
0W
0(
0,!
01!
0;!
0K!
0I!
0)!
1+!
12!
10!
1:!
1L!
1J!
1H!
1&!
0\
0^
0b
0`
0a
0]
0C
0A
0=
0?
0>
0B
#3160000
0!
0N
0P
1E
#3180000
1!
1N
1P
0E
1y
0x
1d
1;
1S!
0R!
1e
1:
1{
0z
1f
19
1w
0t
1g
18
#3200000
0!
0N
0P
1E
#3220000
1!
1N
1P
0E
0y
1x
0d
0;
#3240000
0!
0N
0P
1E
#3260000
1!
1N
1P
0E
1y
0x
1d
1;
0S!
1R!
0e
0:
#3280000
0!
0N
0P
1E
#3300000
1!
1N
1P
0E
0y
1x
0d
0;
#3320000
0!
0N
0P
1E
#3340000
1!
1N
1P
0E
1y
0x
1d
1;
1S!
0R!
1e
1:
0{
1z
0f
09
#3360000
0!
0N
0P
1E
#3380000
1!
1N
1P
0E
0y
1x
0d
0;
#3400000
0!
0N
0P
1E
#3420000
1!
1N
1P
0E
1y
0x
1d
1;
0S!
1R!
0e
0:
1|
1W!
0}
1Y
1'
14!
0?!
0~
1Y!
0V!
1?!
1~
1n
0m
11
02
15!
0~
#3440000
0!
0N
0P
1E
#3460000
1!
1N
1P
0E
16!
0!!
0y
0'!
1u
1x
1j
0i
0d
0(!
1v
15
06
0;
0E!
1D!
1"!
0r
0|
1Z
0[
0T
1Q
1V
0R
0Y
1D
0&
0/
1+
1-
0*
0'
0w
1t
0g
08
#3480000
0!
0N
0P
1E
#3500000
1!
1N
1P
0E
1K!
1,!
0J!
0+!
1`
1\
1?
1C
1I!
1)!
0L!
0H!
0&!
1a
1]
1>
1B
1;!
11!
0:!
02!
00!
1b
1^
1=
1A
1Q!
1O!
0P!
0N!
12!
1c
1_
1<
1@
#3520000
0!
0N
0P
1E
#3540000
1!
1N
1P
0E
0K!
0,!
1L!
1J!
0-!
1+!
0`
0\
0?
0C
#3560000
0!
0N
0P
1E
#3580000
1!
1N
1P
0E
1K!
1,!
0L!
0J!
1-!
0+!
1`
1\
1?
1C
0I!
0)!
1L!
1H!
1&!
0a
0]
0>
0B
#3600000
0!
0N
0P
1E
#3620000
1!
1N
1P
0E
0K!
0,!
1J!
1+!
0`
0\
0?
0C
#3640000
0!
0N
0P
1E
#3660000
1!
1N
1P
0E
1K!
1,!
0J!
0+!
1`
1\
1?
1C
1I!
1)!
0L!
0H!
0&!
1a
1]
1>
1B
0;!
01!
0<!
1:!
10!
0b
0^
0=
0A
0M!
1=!
0W!
1>!
1X
1,
04!
1p
0Y!
1Z!
05!
0n
1o
01
10
#3680000
0!
0N
0P
1E
#3700000
1!
1N
1P
0E
0K!
06!
0,!
1q
1L!
1J!
1'!
0u
0-!
1+!
0`
0j
0\
1k
1(!
0v
0?
05
0C
14
17!
0"!
1M!
0=!
0Z
1[
1U
0V
0D
1&
1.
0-
0X
0,
0)!
0I!
0O!
0Q!
1-!
1&!
1H!
1N!
1P!
1<!
0]
0a
0_
0c
0B
0>
0@
0<
#3720000
0!
0N
0P
1E
#3740000
1!
1N
1P
0E
1y
0x
1d
1;
1S!
0R!
1e
1:
1{
0z
1f
19
1w
0t
1g
18
#3760000
0!
0N
0P
1E
#3780000
1!
1N
1P
0E
0y
1x
0d
0;
#3800000
0!
0N
0P
1E
#3820000
1!
1N
1P
0E
1y
0x
1d
1;
0S!
1R!
0e
0:
#3840000
0!
0N
0P
1E
#3860000
1!
1N
1P
0E
0y
1x
0d
0;
#3880000
0!
0N
0P
1E
#3900000
1!
1N
1P
0E
1y
0x
1d
1;
1S!
0R!
1e
1:
0{
1z
0f
09
#3920000
0!
0N
0P
1E
#3940000
1!
1N
1P
0E
0y
1x
0d
0;
#3960000
0!
0N
0P
1E
#3980000
1!
1N
1P
0E
1y
0x
1d
1;
0S!
1R!
0e
0:
1|
0A!
0>!
1Y
1'
1B!
0p
1l
13
0Z!
0o
00
#4000000
0!
0N
0P
1E
#4020000
1!
1N
1P
0E
1C!
0y
0q
0'!
1u
1x
1h
0d
0k
0(!
1v
17
0;
04
1E!
0D!
07!
1s
0|
1A!
1Z
0[
1T
0Q
0U
1S
0Y
1D
0&
1/
0+
0.
1)
0'
0B!
0?!
0l
03
1B!
0w
1t
0g
08
#4040000
0!
0N
0P
1E
#4060000
1!
1N
1P
0E
1K!
1,!
0J!
0+!
1`
1\
1?
1C
1I!
1)!
0L!
0H!
0&!
1a
1]
1>
1B
1;!
11!
0:!
02!
00!
1b
1^
1=
1A
1Q!
1O!
0P!
0N!
12!
1c
1_
1<
1@
#4080000
0!
0N
0P
1E
#4100000
1!
1N
1P
0E
0K!
0,!
1L!
1J!
0-!
1+!
0`
0\
0?
0C
#4120000
0!
0N
0P
1E
#4140000
1!
1N
1P
0E
1K!
1,!
0L!
0J!
1-!
0+!
1`
1\
1?
1C
0I!
0)!
1L!
1H!
1&!
0a
0]
0>
0B
#4160000
0!
0N
0P
1E
#4180000
1!
1N
1P
0E
0K!
0,!
1J!
1+!
0`
0\
0?
0C
#4200000
0!
0N
0P
1E
#4220000
1!
1N
1P
0E
1K!
1,!
0J!
0+!
1`
1\
1?
1C
1I!
1)!
0L!
0H!
0&!
1a
1]
1>
1B
0;!
01!
0<!
1:!
10!
0b
0^
0=
0A
0M!
1X
1,
#4240000
0!
0N
0P
1E
#4260000
1!
1N
1P
0E
0K!
0,!
1L!
1J!
0-!
1+!
0`
0\
0?
0C
1M!
0X
0,
#4280000
0!
0N
0P
1E
#4300000
1!
1N
1P
0E
1K!
1,!
0L!
0J!
1-!
0+!
1`
1\
1?
1C
0M!
1X
1,
0I!
0)!
1L!
1H!
1&!
0a
0]
0>
0B
1M!
0X
0,
#4320000
0!
0N
0P
1E
#4340000
1!
1N
1P
0E
0K!
0,!
1J!
1+!
0`
0\
0?
0C
#4360000
0!
0N
0P
1E
